%YAML 1.1
%TAG !u! tag:unity3d.com,2011:
--- !u!21 &2100000
Material:
  serializedVersion: 6
  m_ObjectHideFlags: 0
  m_CorrespondingSourceObject: {fileID: 0}
  m_PrefabInstance: {fileID: 0}
  m_PrefabAsset: {fileID: 0}
  m_Name: DissovleShader
  m_Shader: {fileID: -6465566751694194690, guid: e8c64587bea1bf74eb54e32c6840e497, type: 3}
  m_ShaderKeywords: 
  m_LightmapFlags: 4
  m_EnableInstancingVariants: 0
  m_DoubleSidedGI: 0
  m_CustomRenderQueue: -1
  stringTagMap: {}
  disabledShaderPasses: []
  m_SavedProperties:
    serializedVersion: 3
    m_TexEnvs:
    - unity_Lightmaps:
        m_Texture: {fileID: 0}
        m_Scale: {x: 1, y: 1}
        m_Offset: {x: 0, y: 0}
    - unity_LightmapsInd:
        m_Texture: {fileID: 0}
        m_Scale: {x: 1, y: 1}
        m_Offset: {x: 0, y: 0}
    - unity_ShadowMasks:
        m_Texture: {fileID: 0}
        m_Scale: {x: 1, y: 1}
        m_Offset: {x: 0, y: 0}
    m_Floats:
    - Vector1_45102d44ac9840ce90c1642b599fd858: 0.5
    - Vector1_7951622371024389a9351fee62a182fd: 0
    - Vector1_b3f739a95a8b4c82a4ccc259151c152b: 0.03
    - Vector1_dbe13523024b4365868b429869dd878e: 50
    - _EffectAmount: 0.32
    m_Colors:
    - Color_18fb70f879d94b278ef11b1a078298e2: {r: 270.84457, g: 0, b: 0, a: 0}
    - Color_b6f6059e3e4f4adb84a73224cbb57c6a: {r: 0.745283, g: 0.18632075, b: 0.18632075, a: 0}
  m_BuildTextureStacks: []
