%YAML 1.1
%TAG !u! tag:unity3d.com,2011:
--- !u!1045 &1
EditorBuildSettings:
  m_ObjectHideFlags: 0
  serializedVersion: 2
  m_Scenes:
  - enabled: 1
    path: Assets/Scenes/MainScene.unity
    guid: 060a3f6a788fbec48a83c9c6f931926c
  - enabled: 1
    path: Assets/Scenes/LobbyScene.unity
    guid: 698dcc49472b9384c9df2e22576af1dd
  - enabled: 1
    path: Assets/Scenes/MainLevel.unity
    guid: c1ca0254c48df5c4dac869505b8e2b51
  - enabled: 1
    path: Assets/Scenes/HumansWon.unity
    guid: b580c8ee9cec7e447acea2ce6d5c1498
  - enabled: 1
    path: Assets/Scenes/JokaWon.unity
    guid: b6448f19b96741d4ba0be403c8e3713c
  m_configObjects: {}
